HW05_ALU-Driver/run.log
Command: ./simv -l run.log
Chronologic VCS simulator copyright 1991-2014
Contains Synopsys proprietary information.
Compiler version I-2014.03-2; Runtime version I-2014.03-2;  Feb 24 15:52 2020
UVM_INFO /home/morris/uvm-1.2/src/base/uvm_root.svh(392) @ 0: reporter [UVM/RELNOTES] 
----------------------------------------------------------------
UVM-1.2
(C) 2007-2014 Mentor Graphics Corporation
(C) 2007-2014 Cadence Design Systems, Inc.
(C) 2006-2014 Synopsys, Inc.
(C) 2011-2013 Cypress Semiconductor Corp.
(C) 2013-2014 NVIDIA Corporation
----------------------------------------------------------------

  ***********       IMPORTANT RELEASE NOTES         ************

  You are using a version of the UVM library that has been compiled
  with `UVM_OBJECT_DO_NOT_NEED_CONSTRUCTOR undefined.
  See http://www.eda.org/svdb/view.php?id=3770 for more details.

      (Specify +UVM_NO_RELNOTES to turn off this notice)

UVM_INFO @ 0: reporter [RNTST] Running test my_test...
UVM_INFO alu_monitor.sv(17) @ 0: uvm_test_top.env_alu.agnt_alu.MONITOR [MONITOR_2] RUN PHASE
UVM_INFO alu_sequencer.sv(10) @ 0: uvm_test_top.env_alu.agnt_alu.SEQUENCER [sequencer] build phase
UVM_INFO alu_scoreboard.sv(16) @ 0: uvm_test_top.env_alu.sb_alu [alu_scoreboard] build phase
UVM_INFO /home/morris/uvm-1.2/src/base/uvm_root.svh(579) @ 0: reporter [UVMTOP] UVM testbench topology:
-------------------------------------------------------------------
Name                            Type                    Size  Value
-------------------------------------------------------------------
uvm_test_top                    my_test                 -     @340 
  env_alu                       my_environment          -     @353 
    agnt_alu                    my_agent                -     @365 
      DRIVER                    my_driver               -     @383 
        rsp_port                uvm_analysis_port       -     @402 
        seq_item_port           uvm_seq_item_pull_port  -     @392 
      MONITOR                   my_monitor              -     @549 
        monitor_port            uvm_analysis_port       -     @575 
      SEQUENCER                 my_sequencer            -     @412 
        rsp_export              uvm_analysis_export     -     @421 
        seq_item_export         uvm_seq_item_pull_imp   -     @539 
        arbitration_queue       array                   0     -    
        lock_queue              array                   0     -    
        num_last_reqs           integral                32    'd1  
        num_last_rsps           integral                32    'd1  
      agent_port                uvm_analysis_port       -     @558 
    sb_alu                      my_scoreboard           -     @374 
      scoreboard_port building  uvm_analysis_imp        -     @590 
-------------------------------------------------------------------

UVM_INFO alu_monitor.sv(30) @ 0: uvm_test_top.env_alu.agnt_alu.MONITOR [MONITOR] RUN PHASE
UVM_INFO alu_sequencer.sv(14) @ 0: uvm_test_top.env_alu.agnt_alu.SEQUENCER [sequencer] packet sent
UVM_INFO alu_scoreboard.sv(32) @ 0: uvm_test_top.env_alu.sb_alu [scoreboard_1234] a=0 b=0 ctl=00 z=00000000
UVM_INFO alu_environment.sv(27) @ 0: uvm_test_top.env_alu [my_environment] run phase
UVM_INFO alu_monitor.sv(44) @ 2: uvm_test_top.env_alu.agnt_alu.MONITOR [MON] Z : 00
UVM_INFO alu_scoreboard.sv(26) @ 2: uvm_test_top.env_alu.sb_alu [scoreboard_Write] a=0 b=0 ctl=0 z=0
UVM_INFO alu_monitor.sv(44) @ 4: uvm_test_top.env_alu.agnt_alu.MONITOR [MON] Z : 00
UVM_INFO alu_scoreboard.sv(26) @ 4: uvm_test_top.env_alu.sb_alu [scoreboard_Write] a=0 b=0 ctl=0 z=0
UVM_INFO alu_driver.sv(32) @ 5: uvm_test_top.env_alu.agnt_alu.DRIVER [DRIVER] A = 2e , B = fd, Z=00, ctl=2
UVM_INFO alu_monitor.sv(44) @ 6: uvm_test_top.env_alu.agnt_alu.MONITOR [MON] Z : 00
UVM_INFO alu_scoreboard.sv(26) @ 6: uvm_test_top.env_alu.sb_alu [scoreboard_Write] a=46 b=253 ctl=2 z=0
UVM_INFO alu_monitor.sv(44) @ 8: uvm_test_top.env_alu.agnt_alu.MONITOR [MON] Z : 32
UVM_INFO alu_scoreboard.sv(26) @ 8: uvm_test_top.env_alu.sb_alu [scoreboard_Write] a=46 b=253 ctl=2 z=50
UVM_INFO alu_driver.sv(32) @ 10: uvm_test_top.env_alu.agnt_alu.DRIVER [DRIVER] A = 0f , B = 58, Z=00, ctl=1
UVM_INFO alu_monitor.sv(44) @ 10: uvm_test_top.env_alu.agnt_alu.MONITOR [MON] Z : 32
UVM_INFO alu_scoreboard.sv(26) @ 10: uvm_test_top.env_alu.sb_alu [scoreboard_Write] a=46 b=253 ctl=2 z=50
UVM_INFO alu_monitor.sv(44) @ 12: uvm_test_top.env_alu.agnt_alu.MONITOR [MON] Z : 32
UVM_INFO alu_scoreboard.sv(26) @ 12: uvm_test_top.env_alu.sb_alu [scoreboard_Write] a=15 b=88 ctl=1 z=50
UVM_INFO alu_monitor.sv(44) @ 14: uvm_test_top.env_alu.agnt_alu.MONITOR [MON] Z : 67
UVM_INFO alu_scoreboard.sv(26) @ 14: uvm_test_top.env_alu.sb_alu [scoreboard_Write] a=15 b=88 ctl=1 z=103
UVM_INFO alu_driver.sv(32) @ 15: uvm_test_top.env_alu.agnt_alu.DRIVER [DRIVER] A = 2d , B = fd, Z=00, ctl=1
UVM_INFO alu_monitor.sv(44) @ 16: uvm_test_top.env_alu.agnt_alu.MONITOR [MON] Z : 67
UVM_INFO alu_scoreboard.sv(26) @ 16: uvm_test_top.env_alu.sb_alu [scoreboard_Write] a=45 b=253 ctl=1 z=103
UVM_INFO alu_monitor.sv(44) @ 18: uvm_test_top.env_alu.agnt_alu.MONITOR [MON] Z : 2a
UVM_INFO alu_scoreboard.sv(26) @ 18: uvm_test_top.env_alu.sb_alu [scoreboard_Write] a=45 b=253 ctl=1 z=42
UVM_INFO alu_driver.sv(32) @ 20: uvm_test_top.env_alu.agnt_alu.DRIVER [DRIVER] A = 73 , B = f3, Z=00, ctl=0
UVM_INFO alu_monitor.sv(44) @ 20: uvm_test_top.env_alu.agnt_alu.MONITOR [MON] Z : 2a
UVM_INFO alu_scoreboard.sv(26) @ 20: uvm_test_top.env_alu.sb_alu [scoreboard_Write] a=45 b=253 ctl=1 z=42
UVM_INFO alu_monitor.sv(44) @ 22: uvm_test_top.env_alu.agnt_alu.MONITOR [MON] Z : 2a
UVM_INFO alu_scoreboard.sv(26) @ 22: uvm_test_top.env_alu.sb_alu [scoreboard_Write] a=115 b=243 ctl=0 z=42
UVM_INFO alu_monitor.sv(44) @ 24: uvm_test_top.env_alu.agnt_alu.MONITOR [MON] Z : 73
UVM_INFO alu_scoreboard.sv(26) @ 24: uvm_test_top.env_alu.sb_alu [scoreboard_Write] a=115 b=243 ctl=0 z=115
UVM_INFO alu_driver.sv(32) @ 25: uvm_test_top.env_alu.agnt_alu.DRIVER [DRIVER] A = 4b , B = 07, Z=00, ctl=2
UVM_INFO alu_monitor.sv(44) @ 26: uvm_test_top.env_alu.agnt_alu.MONITOR [MON] Z : 73
UVM_INFO alu_scoreboard.sv(26) @ 26: uvm_test_top.env_alu.sb_alu [scoreboard_Write] a=75 b=7 ctl=2 z=115
UVM_INFO alu_monitor.sv(44) @ 28: uvm_test_top.env_alu.agnt_alu.MONITOR [MON] Z : 45
UVM_INFO alu_scoreboard.sv(26) @ 28: uvm_test_top.env_alu.sb_alu [scoreboard_Write] a=75 b=7 ctl=2 z=69
UVM_INFO alu_driver.sv(32) @ 30: uvm_test_top.env_alu.agnt_alu.DRIVER [DRIVER] A = f7 , B = e7, Z=00, ctl=3
UVM_INFO alu_monitor.sv(44) @ 30: uvm_test_top.env_alu.agnt_alu.MONITOR [MON] Z : 45
UVM_INFO alu_scoreboard.sv(26) @ 30: uvm_test_top.env_alu.sb_alu [scoreboard_Write] a=75 b=7 ctl=2 z=69
UVM_INFO alu_monitor.sv(44) @ 32: uvm_test_top.env_alu.agnt_alu.MONITOR [MON] Z : 45
UVM_INFO alu_scoreboard.sv(26) @ 32: uvm_test_top.env_alu.sb_alu [scoreboard_Write] a=247 b=231 ctl=3 z=69
UVM_INFO alu_monitor.sv(44) @ 34: uvm_test_top.env_alu.agnt_alu.MONITOR [MON] Z : 10
UVM_INFO alu_scoreboard.sv(26) @ 34: uvm_test_top.env_alu.sb_alu [scoreboard_Write] a=247 b=231 ctl=3 z=16
UVM_INFO alu_driver.sv(32) @ 35: uvm_test_top.env_alu.agnt_alu.DRIVER [DRIVER] A = 9c , B = 3b, Z=00, ctl=3
UVM_INFO alu_monitor.sv(44) @ 36: uvm_test_top.env_alu.agnt_alu.MONITOR [MON] Z : 10
UVM_INFO alu_scoreboard.sv(26) @ 36: uvm_test_top.env_alu.sb_alu [scoreboard_Write] a=156 b=59 ctl=3 z=16
UVM_INFO alu_monitor.sv(44) @ 38: uvm_test_top.env_alu.agnt_alu.MONITOR [MON] Z : a7
UVM_INFO alu_scoreboard.sv(26) @ 38: uvm_test_top.env_alu.sb_alu [scoreboard_Write] a=156 b=59 ctl=3 z=167
UVM_INFO alu_driver.sv(32) @ 40: uvm_test_top.env_alu.agnt_alu.DRIVER [DRIVER] A = a0 , B = d1, Z=00, ctl=1
UVM_INFO alu_monitor.sv(44) @ 40: uvm_test_top.env_alu.agnt_alu.MONITOR [MON] Z : a7
UVM_INFO alu_scoreboard.sv(26) @ 40: uvm_test_top.env_alu.sb_alu [scoreboard_Write] a=156 b=59 ctl=3 z=167
UVM_INFO alu_monitor.sv(44) @ 42: uvm_test_top.env_alu.agnt_alu.MONITOR [MON] Z : a7
UVM_INFO alu_scoreboard.sv(26) @ 42: uvm_test_top.env_alu.sb_alu [scoreboard_Write] a=160 b=209 ctl=1 z=167
UVM_INFO alu_monitor.sv(44) @ 44: uvm_test_top.env_alu.agnt_alu.MONITOR [MON] Z : 71
UVM_INFO alu_scoreboard.sv(26) @ 44: uvm_test_top.env_alu.sb_alu [scoreboard_Write] a=160 b=209 ctl=1 z=113
UVM_INFO alu_driver.sv(32) @ 45: uvm_test_top.env_alu.agnt_alu.DRIVER [DRIVER] A = fa , B = f7, Z=00, ctl=0
UVM_INFO alu_monitor.sv(44) @ 46: uvm_test_top.env_alu.agnt_alu.MONITOR [MON] Z : 71
UVM_INFO alu_scoreboard.sv(26) @ 46: uvm_test_top.env_alu.sb_alu [scoreboard_Write] a=250 b=247 ctl=0 z=113
UVM_INFO alu_monitor.sv(44) @ 48: uvm_test_top.env_alu.agnt_alu.MONITOR [MON] Z : fa
UVM_INFO alu_scoreboard.sv(26) @ 48: uvm_test_top.env_alu.sb_alu [scoreboard_Write] a=250 b=247 ctl=0 z=250
UVM_INFO alu_driver.sv(32) @ 50: uvm_test_top.env_alu.agnt_alu.DRIVER [DRIVER] A = c1 , B = 6d, Z=00, ctl=0
UVM_INFO alu_monitor.sv(44) @ 50: uvm_test_top.env_alu.agnt_alu.MONITOR [MON] Z : fa
UVM_INFO alu_scoreboard.sv(26) @ 50: uvm_test_top.env_alu.sb_alu [scoreboard_Write] a=250 b=247 ctl=0 z=250
UVM_INFO alu_monitor.sv(44) @ 52: uvm_test_top.env_alu.agnt_alu.MONITOR [MON] Z : fa
UVM_INFO alu_scoreboard.sv(26) @ 52: uvm_test_top.env_alu.sb_alu [scoreboard_Write] a=193 b=109 ctl=0 z=250
UVM_INFO alu_monitor.sv(44) @ 54: uvm_test_top.env_alu.agnt_alu.MONITOR [MON] Z : c1
UVM_INFO alu_scoreboard.sv(26) @ 54: uvm_test_top.env_alu.sb_alu [scoreboard_Write] a=193 b=109 ctl=0 z=193
UVM_INFO alu_driver.sv(32) @ 55: uvm_test_top.env_alu.agnt_alu.DRIVER [DRIVER] A = 91 , B = 83, Z=00, ctl=3
UVM_INFO alu_monitor.sv(44) @ 56: uvm_test_top.env_alu.agnt_alu.MONITOR [MON] Z : c1
UVM_INFO alu_scoreboard.sv(26) @ 56: uvm_test_top.env_alu.sb_alu [scoreboard_Write] a=145 b=131 ctl=3 z=193
UVM_INFO alu_monitor.sv(44) @ 58: uvm_test_top.env_alu.agnt_alu.MONITOR [MON] Z : 12
UVM_INFO alu_scoreboard.sv(26) @ 58: uvm_test_top.env_alu.sb_alu [scoreboard_Write] a=145 b=131 ctl=3 z=18
UVM_INFO alu_driver.sv(32) @ 60: uvm_test_top.env_alu.agnt_alu.DRIVER [DRIVER] A = 88 , B = 0c, Z=00, ctl=3
UVM_INFO alu_monitor.sv(44) @ 60: uvm_test_top.env_alu.agnt_alu.MONITOR [MON] Z : 12
UVM_INFO alu_scoreboard.sv(26) @ 60: uvm_test_top.env_alu.sb_alu [scoreboard_Write] a=145 b=131 ctl=3 z=18
UVM_INFO alu_monitor.sv(44) @ 62: uvm_test_top.env_alu.agnt_alu.MONITOR [MON] Z : 12
UVM_INFO alu_scoreboard.sv(26) @ 62: uvm_test_top.env_alu.sb_alu [scoreboard_Write] a=136 b=12 ctl=3 z=18
UVM_INFO alu_monitor.sv(44) @ 64: uvm_test_top.env_alu.agnt_alu.MONITOR [MON] Z : 84
UVM_INFO alu_scoreboard.sv(26) @ 64: uvm_test_top.env_alu.sb_alu [scoreboard_Write] a=136 b=12 ctl=3 z=132
UVM_INFO alu_driver.sv(32) @ 65: uvm_test_top.env_alu.agnt_alu.DRIVER [DRIVER] A = c8 , B = 63, Z=00, ctl=1
UVM_INFO alu_monitor.sv(44) @ 66: uvm_test_top.env_alu.agnt_alu.MONITOR [MON] Z : 84
UVM_INFO alu_scoreboard.sv(26) @ 66: uvm_test_top.env_alu.sb_alu [scoreboard_Write] a=200 b=99 ctl=1 z=132
UVM_INFO alu_monitor.sv(44) @ 68: uvm_test_top.env_alu.agnt_alu.MONITOR [MON] Z : 2b
UVM_INFO alu_scoreboard.sv(26) @ 68: uvm_test_top.env_alu.sb_alu [scoreboard_Write] a=200 b=99 ctl=1 z=43
UVM_INFO alu_driver.sv(32) @ 70: uvm_test_top.env_alu.agnt_alu.DRIVER [DRIVER] A = 4f , B = ed, Z=00, ctl=3
UVM_INFO alu_monitor.sv(44) @ 70: uvm_test_top.env_alu.agnt_alu.MONITOR [MON] Z : 2b
UVM_INFO alu_scoreboard.sv(26) @ 70: uvm_test_top.env_alu.sb_alu [scoreboard_Write] a=200 b=99 ctl=1 z=43
UVM_INFO alu_monitor.sv(44) @ 72: uvm_test_top.env_alu.agnt_alu.MONITOR [MON] Z : 2b
UVM_INFO alu_scoreboard.sv(26) @ 72: uvm_test_top.env_alu.sb_alu [scoreboard_Write] a=79 b=237 ctl=3 z=43
UVM_INFO alu_monitor.sv(44) @ 74: uvm_test_top.env_alu.agnt_alu.MONITOR [MON] Z : a2
UVM_INFO alu_scoreboard.sv(26) @ 74: uvm_test_top.env_alu.sb_alu [scoreboard_Write] a=79 b=237 ctl=3 z=162
UVM_INFO alu_driver.sv(32) @ 75: uvm_test_top.env_alu.agnt_alu.DRIVER [DRIVER] A = 14 , B = 00, Z=00, ctl=1
UVM_INFO alu_monitor.sv(44) @ 76: uvm_test_top.env_alu.agnt_alu.MONITOR [MON] Z : a2
UVM_INFO alu_scoreboard.sv(26) @ 76: uvm_test_top.env_alu.sb_alu [scoreboard_Write] a=20 b=0 ctl=1 z=162
UVM_INFO alu_monitor.sv(44) @ 78: uvm_test_top.env_alu.agnt_alu.MONITOR [MON] Z : 15
UVM_INFO alu_scoreboard.sv(26) @ 78: uvm_test_top.env_alu.sb_alu [scoreboard_Write] a=20 b=0 ctl=1 z=21
UVM_INFO alu_driver.sv(32) @ 80: uvm_test_top.env_alu.agnt_alu.DRIVER [DRIVER] A = 59 , B = 19, Z=00, ctl=2
UVM_INFO alu_monitor.sv(44) @ 80: uvm_test_top.env_alu.agnt_alu.MONITOR [MON] Z : 15
UVM_INFO alu_scoreboard.sv(26) @ 80: uvm_test_top.env_alu.sb_alu [scoreboard_Write] a=20 b=0 ctl=1 z=21
UVM_INFO alu_monitor.sv(44) @ 82: uvm_test_top.env_alu.agnt_alu.MONITOR [MON] Z : 15
UVM_INFO alu_scoreboard.sv(26) @ 82: uvm_test_top.env_alu.sb_alu [scoreboard_Write] a=89 b=25 ctl=2 z=21
UVM_INFO alu_monitor.sv(44) @ 84: uvm_test_top.env_alu.agnt_alu.MONITOR [MON] Z : 15
UVM_INFO alu_scoreboard.sv(26) @ 84: uvm_test_top.env_alu.sb_alu [scoreboard_Write] a=89 b=25 ctl=2 z=21
UVM_INFO alu_driver.sv(32) @ 85: uvm_test_top.env_alu.agnt_alu.DRIVER [DRIVER] A = cc , B = 0e, Z=00, ctl=0
UVM_INFO alu_monitor.sv(44) @ 86: uvm_test_top.env_alu.agnt_alu.MONITOR [MON] Z : 15
UVM_INFO alu_scoreboard.sv(26) @ 86: uvm_test_top.env_alu.sb_alu [scoreboard_Write] a=204 b=14 ctl=0 z=21
UVM_INFO alu_monitor.sv(44) @ 88: uvm_test_top.env_alu.agnt_alu.MONITOR [MON] Z : cc
UVM_INFO alu_scoreboard.sv(26) @ 88: uvm_test_top.env_alu.sb_alu [scoreboard_Write] a=204 b=14 ctl=0 z=204
UVM_INFO alu_driver.sv(32) @ 90: uvm_test_top.env_alu.agnt_alu.DRIVER [DRIVER] A = 8b , B = 5d, Z=00, ctl=3
UVM_INFO alu_monitor.sv(44) @ 90: uvm_test_top.env_alu.agnt_alu.MONITOR [MON] Z : cc
UVM_INFO alu_scoreboard.sv(26) @ 90: uvm_test_top.env_alu.sb_alu [scoreboard_Write] a=204 b=14 ctl=0 z=204
UVM_INFO alu_monitor.sv(44) @ 92: uvm_test_top.env_alu.agnt_alu.MONITOR [MON] Z : cc
UVM_INFO alu_scoreboard.sv(26) @ 92: uvm_test_top.env_alu.sb_alu [scoreboard_Write] a=139 b=93 ctl=3 z=204
UVM_INFO alu_monitor.sv(44) @ 94: uvm_test_top.env_alu.agnt_alu.MONITOR [MON] Z : d6
UVM_INFO alu_scoreboard.sv(26) @ 94: uvm_test_top.env_alu.sb_alu [scoreboard_Write] a=139 b=93 ctl=3 z=214
UVM_INFO alu_driver.sv(32) @ 95: uvm_test_top.env_alu.agnt_alu.DRIVER [DRIVER] A = 09 , B = f7, Z=00, ctl=2
UVM_INFO alu_monitor.sv(44) @ 96: uvm_test_top.env_alu.agnt_alu.MONITOR [MON] Z : d6
UVM_INFO alu_scoreboard.sv(26) @ 96: uvm_test_top.env_alu.sb_alu [scoreboard_Write] a=9 b=247 ctl=2 z=214
UVM_INFO alu_monitor.sv(44) @ 98: uvm_test_top.env_alu.agnt_alu.MONITOR [MON] Z : d6
UVM_INFO alu_scoreboard.sv(26) @ 98: uvm_test_top.env_alu.sb_alu [scoreboard_Write] a=9 b=247 ctl=2 z=214
UVM_INFO alu_driver.sv(32) @ 100: uvm_test_top.env_alu.agnt_alu.DRIVER [DRIVER] A = 56 , B = d9, Z=00, ctl=2
UVM_INFO alu_monitor.sv(44) @ 100: uvm_test_top.env_alu.agnt_alu.MONITOR [MON] Z : d6
UVM_INFO alu_scoreboard.sv(26) @ 100: uvm_test_top.env_alu.sb_alu [scoreboard_Write] a=9 b=247 ctl=2 z=214
UVM_INFO alu_monitor.sv(44) @ 102: uvm_test_top.env_alu.agnt_alu.MONITOR [MON] Z : d6
UVM_INFO alu_scoreboard.sv(26) @ 102: uvm_test_top.env_alu.sb_alu [scoreboard_Write] a=86 b=217 ctl=2 z=214
UVM_INFO alu_monitor.sv(44) @ 104: uvm_test_top.env_alu.agnt_alu.MONITOR [MON] Z : d6
UVM_INFO alu_scoreboard.sv(26) @ 104: uvm_test_top.env_alu.sb_alu [scoreboard_Write] a=86 b=217 ctl=2 z=214
UVM_INFO alu_driver.sv(32) @ 105: uvm_test_top.env_alu.agnt_alu.DRIVER [DRIVER] A = 79 , B = b6, Z=00, ctl=3
UVM_INFO alu_monitor.sv(44) @ 106: uvm_test_top.env_alu.agnt_alu.MONITOR [MON] Z : d6
UVM_INFO alu_scoreboard.sv(26) @ 106: uvm_test_top.env_alu.sb_alu [scoreboard_Write] a=121 b=182 ctl=3 z=214
UVM_INFO alu_monitor.sv(44) @ 108: uvm_test_top.env_alu.agnt_alu.MONITOR [MON] Z : cf
UVM_INFO alu_scoreboard.sv(26) @ 108: uvm_test_top.env_alu.sb_alu [scoreboard_Write] a=121 b=182 ctl=3 z=207
UVM_INFO alu_driver.sv(32) @ 110: uvm_test_top.env_alu.agnt_alu.DRIVER [DRIVER] A = 65 , B = 08, Z=00, ctl=1
UVM_INFO alu_monitor.sv(44) @ 110: uvm_test_top.env_alu.agnt_alu.MONITOR [MON] Z : cf
UVM_INFO alu_scoreboard.sv(26) @ 110: uvm_test_top.env_alu.sb_alu [scoreboard_Write] a=121 b=182 ctl=3 z=207
UVM_INFO alu_monitor.sv(44) @ 112: uvm_test_top.env_alu.agnt_alu.MONITOR [MON] Z : cf
UVM_INFO alu_scoreboard.sv(26) @ 112: uvm_test_top.env_alu.sb_alu [scoreboard_Write] a=101 b=8 ctl=1 z=207
UVM_INFO alu_monitor.sv(44) @ 114: uvm_test_top.env_alu.agnt_alu.MONITOR [MON] Z : 6e
UVM_INFO alu_scoreboard.sv(26) @ 114: uvm_test_top.env_alu.sb_alu [scoreboard_Write] a=101 b=8 ctl=1 z=110
UVM_INFO alu_driver.sv(32) @ 115: uvm_test_top.env_alu.agnt_alu.DRIVER [DRIVER] A = 6e , B = 6c, Z=00, ctl=3
UVM_INFO alu_monitor.sv(44) @ 116: uvm_test_top.env_alu.agnt_alu.MONITOR [MON] Z : 6e
UVM_INFO alu_scoreboard.sv(26) @ 116: uvm_test_top.env_alu.sb_alu [scoreboard_Write] a=110 b=108 ctl=3 z=110
UVM_INFO alu_monitor.sv(44) @ 118: uvm_test_top.env_alu.agnt_alu.MONITOR [MON] Z : 02
UVM_INFO alu_scoreboard.sv(26) @ 118: uvm_test_top.env_alu.sb_alu [scoreboard_Write] a=110 b=108 ctl=3 z=2
UVM_INFO alu_driver.sv(32) @ 120: uvm_test_top.env_alu.agnt_alu.DRIVER [DRIVER] A = df , B = b3, Z=00, ctl=1
UVM_INFO alu_monitor.sv(44) @ 120: uvm_test_top.env_alu.agnt_alu.MONITOR [MON] Z : 02
UVM_INFO alu_scoreboard.sv(26) @ 120: uvm_test_top.env_alu.sb_alu [scoreboard_Write] a=110 b=108 ctl=3 z=2
UVM_INFO alu_monitor.sv(44) @ 122: uvm_test_top.env_alu.agnt_alu.MONITOR [MON] Z : 02
UVM_INFO alu_scoreboard.sv(26) @ 122: uvm_test_top.env_alu.sb_alu [scoreboard_Write] a=223 b=179 ctl=1 z=2
UVM_INFO alu_monitor.sv(44) @ 124: uvm_test_top.env_alu.agnt_alu.MONITOR [MON] Z : 92
UVM_INFO alu_scoreboard.sv(26) @ 124: uvm_test_top.env_alu.sb_alu [scoreboard_Write] a=223 b=179 ctl=1 z=146
UVM_INFO alu_driver.sv(32) @ 125: uvm_test_top.env_alu.agnt_alu.DRIVER [DRIVER] A = 45 , B = 9d, Z=00, ctl=1
UVM_INFO alu_monitor.sv(44) @ 126: uvm_test_top.env_alu.agnt_alu.MONITOR [MON] Z : 92
UVM_INFO alu_scoreboard.sv(26) @ 126: uvm_test_top.env_alu.sb_alu [scoreboard_Write] a=69 b=157 ctl=1 z=146
UVM_INFO alu_monitor.sv(44) @ 128: uvm_test_top.env_alu.agnt_alu.MONITOR [MON] Z : 92
UVM_INFO alu_scoreboard.sv(26) @ 128: uvm_test_top.env_alu.sb_alu [scoreboard_Write] a=69 b=157 ctl=1 z=146
UVM_INFO alu_driver.sv(32) @ 130: uvm_test_top.env_alu.agnt_alu.DRIVER [DRIVER] A = 0d , B = 0d, Z=00, ctl=0
UVM_INFO alu_monitor.sv(44) @ 130: uvm_test_top.env_alu.agnt_alu.MONITOR [MON] Z : 92
UVM_INFO alu_scoreboard.sv(26) @ 130: uvm_test_top.env_alu.sb_alu [scoreboard_Write] a=69 b=157 ctl=1 z=146
UVM_INFO alu_monitor.sv(44) @ 132: uvm_test_top.env_alu.agnt_alu.MONITOR [MON] Z : 92
UVM_INFO alu_scoreboard.sv(26) @ 132: uvm_test_top.env_alu.sb_alu [scoreboard_Write] a=13 b=13 ctl=0 z=146
UVM_INFO alu_monitor.sv(44) @ 134: uvm_test_top.env_alu.agnt_alu.MONITOR [MON] Z : 0d
UVM_INFO alu_scoreboard.sv(26) @ 134: uvm_test_top.env_alu.sb_alu [scoreboard_Write] a=13 b=13 ctl=0 z=13
UVM_INFO alu_driver.sv(32) @ 135: uvm_test_top.env_alu.agnt_alu.DRIVER [DRIVER] A = 9a , B = 7b, Z=00, ctl=3
UVM_INFO alu_monitor.sv(44) @ 136: uvm_test_top.env_alu.agnt_alu.MONITOR [MON] Z : 0d
UVM_INFO alu_scoreboard.sv(26) @ 136: uvm_test_top.env_alu.sb_alu [scoreboard_Write] a=154 b=123 ctl=3 z=13
UVM_INFO alu_monitor.sv(44) @ 138: uvm_test_top.env_alu.agnt_alu.MONITOR [MON] Z : e1
UVM_INFO alu_scoreboard.sv(26) @ 138: uvm_test_top.env_alu.sb_alu [scoreboard_Write] a=154 b=123 ctl=3 z=225
UVM_INFO alu_driver.sv(32) @ 140: uvm_test_top.env_alu.agnt_alu.DRIVER [DRIVER] A = 76 , B = 36, Z=00, ctl=1
UVM_INFO alu_monitor.sv(44) @ 140: uvm_test_top.env_alu.agnt_alu.MONITOR [MON] Z : e1
UVM_INFO alu_scoreboard.sv(26) @ 140: uvm_test_top.env_alu.sb_alu [scoreboard_Write] a=154 b=123 ctl=3 z=225
UVM_INFO alu_monitor.sv(44) @ 142: uvm_test_top.env_alu.agnt_alu.MONITOR [MON] Z : e1
UVM_INFO alu_scoreboard.sv(26) @ 142: uvm_test_top.env_alu.sb_alu [scoreboard_Write] a=118 b=54 ctl=1 z=225
UVM_INFO alu_monitor.sv(44) @ 144: uvm_test_top.env_alu.agnt_alu.MONITOR [MON] Z : e1
UVM_INFO alu_scoreboard.sv(26) @ 144: uvm_test_top.env_alu.sb_alu [scoreboard_Write] a=118 b=54 ctl=1 z=225
UVM_INFO alu_driver.sv(32) @ 145: uvm_test_top.env_alu.agnt_alu.DRIVER [DRIVER] A = f0 , B = 38, Z=00, ctl=0
UVM_INFO alu_monitor.sv(44) @ 146: uvm_test_top.env_alu.agnt_alu.MONITOR [MON] Z : e1
UVM_INFO alu_scoreboard.sv(26) @ 146: uvm_test_top.env_alu.sb_alu [scoreboard_Write] a=240 b=56 ctl=0 z=225
UVM_INFO alu_monitor.sv(44) @ 148: uvm_test_top.env_alu.agnt_alu.MONITOR [MON] Z : e1
UVM_INFO alu_scoreboard.sv(26) @ 148: uvm_test_top.env_alu.sb_alu [scoreboard_Write] a=240 b=56 ctl=0 z=225
UVM_INFO alu_driver.sv(32) @ 150: uvm_test_top.env_alu.agnt_alu.DRIVER [DRIVER] A = 5d , B = 9c, Z=00, ctl=1
UVM_INFO alu_monitor.sv(44) @ 150: uvm_test_top.env_alu.agnt_alu.MONITOR [MON] Z : e1
UVM_INFO alu_scoreboard.sv(26) @ 150: uvm_test_top.env_alu.sb_alu [scoreboard_Write] a=240 b=56 ctl=0 z=225
UVM_INFO alu_monitor.sv(44) @ 152: uvm_test_top.env_alu.agnt_alu.MONITOR [MON] Z : e1
UVM_INFO alu_scoreboard.sv(26) @ 152: uvm_test_top.env_alu.sb_alu [scoreboard_Write] a=93 b=156 ctl=1 z=225
UVM_INFO alu_monitor.sv(44) @ 154: uvm_test_top.env_alu.agnt_alu.MONITOR [MON] Z : e1
UVM_INFO alu_scoreboard.sv(26) @ 154: uvm_test_top.env_alu.sb_alu [scoreboard_Write] a=93 b=156 ctl=1 z=225
UVM_INFO alu_monitor.sv(44) @ 156: uvm_test_top.env_alu.agnt_alu.MONITOR [MON] Z : e1
UVM_INFO alu_scoreboard.sv(26) @ 156: uvm_test_top.env_alu.sb_alu [scoreboard_Write] a=93 b=156 ctl=1 z=225
UVM_INFO alu_monitor.sv(44) @ 158: uvm_test_top.env_alu.agnt_alu.MONITOR [MON] Z : e1
UVM_INFO alu_scoreboard.sv(26) @ 158: uvm_test_top.env_alu.sb_alu [scoreboard_Write] a=93 b=156 ctl=1 z=225
UVM_INFO alu_monitor.sv(44) @ 160: uvm_test_top.env_alu.agnt_alu.MONITOR [MON] Z : e1
UVM_INFO alu_scoreboard.sv(26) @ 160: uvm_test_top.env_alu.sb_alu [scoreboard_Write] a=93 b=156 ctl=1 z=225
UVM_INFO alu_monitor.sv(44) @ 162: uvm_test_top.env_alu.agnt_alu.MONITOR [MON] Z : e1
UVM_INFO alu_scoreboard.sv(26) @ 162: uvm_test_top.env_alu.sb_alu [scoreboard_Write] a=93 b=156 ctl=1 z=225
UVM_INFO alu_monitor.sv(44) @ 164: uvm_test_top.env_alu.agnt_alu.MONITOR [MON] Z : e1
UVM_INFO alu_scoreboard.sv(26) @ 164: uvm_test_top.env_alu.sb_alu [scoreboard_Write] a=93 b=156 ctl=1 z=225
UVM_INFO alu_monitor.sv(44) @ 166: uvm_test_top.env_alu.agnt_alu.MONITOR [MON] Z : e1
UVM_INFO alu_scoreboard.sv(26) @ 166: uvm_test_top.env_alu.sb_alu [scoreboard_Write] a=93 b=156 ctl=1 z=225
UVM_INFO alu_monitor.sv(44) @ 168: uvm_test_top.env_alu.agnt_alu.MONITOR [MON] Z : e1
UVM_INFO alu_scoreboard.sv(26) @ 168: uvm_test_top.env_alu.sb_alu [scoreboard_Write] a=93 b=156 ctl=1 z=225
UVM_INFO alu_monitor.sv(44) @ 170: uvm_test_top.env_alu.agnt_alu.MONITOR [MON] Z : e1
UVM_INFO alu_scoreboard.sv(26) @ 170: uvm_test_top.env_alu.sb_alu [scoreboard_Write] a=93 b=156 ctl=1 z=225
UVM_INFO alu_monitor.sv(44) @ 172: uvm_test_top.env_alu.agnt_alu.MONITOR [MON] Z : e1
