HW05_ALU-Driver/run.log
Command: ./simv -l run.log
Chronologic VCS simulator copyright 1991-2014
Contains Synopsys proprietary information.
Compiler version I-2014.03-2; Runtime version I-2014.03-2;  Feb 28 00:21 2020
UVM_INFO /home/morris/uvm-1.2/src/base/uvm_root.svh(392) @ 0: reporter [UVM/RELNOTES] 
----------------------------------------------------------------
UVM-1.2
(C) 2007-2014 Mentor Graphics Corporation
(C) 2007-2014 Cadence Design Systems, Inc.
(C) 2006-2014 Synopsys, Inc.
(C) 2011-2013 Cypress Semiconductor Corp.
(C) 2013-2014 NVIDIA Corporation
----------------------------------------------------------------

  ***********       IMPORTANT RELEASE NOTES         ************

  You are using a version of the UVM library that has been compiled
  with `UVM_OBJECT_DO_NOT_NEED_CONSTRUCTOR undefined.
  See http://www.eda.org/svdb/view.php?id=3770 for more details.

      (Specify +UVM_NO_RELNOTES to turn off this notice)

UVM_INFO @ 0: reporter [RNTST] Running test my_test...
UVM_INFO alu_sequencer.sv(10) @ 0: uvm_test_top.env_alu.agnt_alu.SEQUENCER [SEQUENCER] build phase
UVM_INFO alu_scoreboard.sv(22) @ 0: uvm_test_top.env_alu.sb_alu [alu_scoreboard] build phase
UVM_INFO /home/morris/uvm-1.2/src/base/uvm_root.svh(579) @ 0: reporter [UVMTOP] UVM testbench topology:
---------------------------------------------------------------------
Name                              Type                    Size  Value
---------------------------------------------------------------------
uvm_test_top                      my_test                 -     @340 
  env_alu                         my_environment          -     @353 
    agnt_alu                      my_agent                -     @365 
      DRIVER                      my_driver               -     @412 
        rsp_port                  uvm_analysis_port       -     @431 
        seq_item_port             uvm_seq_item_pull_port  -     @421 
      MONITOR_IN                  my_monitor_in           -     @578 
        monitor_port              uvm_analysis_port       -     @598 
      SEQUENCER                   my_sequencer            -     @441 
        rsp_export                uvm_analysis_export     -     @450 
        seq_item_export           uvm_seq_item_pull_imp   -     @568 
        arbitration_queue         array                   0     -    
        lock_queue                array                   0     -    
        num_last_reqs             integral                32    'd1  
        num_last_rsps             integral                32    'd1  
      agent_port                  uvm_analysis_port       -     @587 
    mon_alu_2                     my_monitor_out          -     @403 
      monitor_port                uvm_analysis_port       -     @611 
    sb_alu                        my_scoreboard           -     @374 
      scoreboard_port building    uvm_analysis_imp_a      -     @383 
      scoreboard_port_2 building  uvm_analysis_imp_b      -     @393 
---------------------------------------------------------------------

UVM_INFO alu_driver.sv(22) @ 0: uvm_test_top.env_alu.agnt_alu.DRIVER [DRIVER] RUN PHASE
UVM_INFO alu_monitor.sv(23) @ 0: uvm_test_top.env_alu.agnt_alu.MONITOR_IN [MONITOR_IN] RUN PHASE
UVM_INFO alu_sequencer.sv(14) @ 0: uvm_test_top.env_alu.agnt_alu.SEQUENCER [SEQUENCER] packet sent
UVM_INFO alu_monitor_2.sv(23) @ 0: uvm_test_top.env_alu.mon_alu_2 [MONITOR_OUT] RUN PHASE
UVM_INFO alu_environment.sv(30) @ 0: uvm_test_top.env_alu [my_environment] run phase
UVM_INFO alu_sequence.sv(11) @ 0: uvm_test_top.env_alu.agnt_alu.SEQUENCER@@seq_alu [SEQUENCE] BODY task
UVM_INFO alu_monitor.sv(32) @ 2: uvm_test_top.env_alu.agnt_alu.MONITOR_IN [MONITOR_IN] a=  0, b=   0, ctl=0
UVM_INFO alu_scoreboard.sv(60) @ 2: uvm_test_top.env_alu.sb_alu [SCOREBOARD] ctl = 0
UVM_INFO alu_monitor_2.sv(29) @ 2: uvm_test_top.env_alu.mon_alu_2 [MONITOR_OUT] z=  0
UVM_INFO alu_driver.sv(28) @ 2: uvm_test_top.env_alu.agnt_alu.DRIVER [DRIVER] A =  36 , B =  36, ctl=0
UVM_INFO alu_scoreboard.sv(77) @ 5: uvm_test_top.env_alu.sb_alu [SCBD] PASS  a=  0, b=   0, out=  0 exp=  0, ctl=0
UVM_INFO alu_driver.sv(28) @ 7: uvm_test_top.env_alu.agnt_alu.DRIVER [DRIVER] A =  51 , B =  26, ctl=0
UVM_INFO alu_scoreboard.sv(77) @ 10: uvm_test_top.env_alu.sb_alu [SCBD] PASS  a=  0, b=   0, out=  0 exp=  0, ctl=0
UVM_INFO alu_monitor.sv(32) @ 12: uvm_test_top.env_alu.agnt_alu.MONITOR_IN [MONITOR_IN] a= 51, b=  26, ctl=0
UVM_INFO alu_scoreboard.sv(60) @ 12: uvm_test_top.env_alu.sb_alu [SCOREBOARD] ctl = 0
UVM_INFO alu_monitor_2.sv(29) @ 12: uvm_test_top.env_alu.mon_alu_2 [MONITOR_OUT] z= 51
UVM_INFO alu_driver.sv(28) @ 12: uvm_test_top.env_alu.agnt_alu.DRIVER [DRIVER] A =  91 , B =  34, ctl=0
UVM_INFO alu_scoreboard.sv(77) @ 15: uvm_test_top.env_alu.sb_alu [SCBD] PASS  a= 51, b=  26, out= 51 exp= 51, ctl=0
UVM_INFO alu_driver.sv(28) @ 17: uvm_test_top.env_alu.agnt_alu.DRIVER [DRIVER] A =  97 , B =  70, ctl=0
UVM_INFO alu_scoreboard.sv(77) @ 20: uvm_test_top.env_alu.sb_alu [SCBD] PASS  a= 51, b=  26, out= 51 exp= 51, ctl=0
UVM_INFO alu_monitor.sv(32) @ 22: uvm_test_top.env_alu.agnt_alu.MONITOR_IN [MONITOR_IN] a= 97, b=  70, ctl=0
UVM_INFO alu_scoreboard.sv(60) @ 22: uvm_test_top.env_alu.sb_alu [SCOREBOARD] ctl = 0
UVM_INFO alu_monitor_2.sv(29) @ 22: uvm_test_top.env_alu.mon_alu_2 [MONITOR_OUT] z= 97
UVM_INFO alu_driver.sv(28) @ 22: uvm_test_top.env_alu.agnt_alu.DRIVER [DRIVER] A = 117 , B = 101, ctl=0
UVM_INFO alu_scoreboard.sv(77) @ 25: uvm_test_top.env_alu.sb_alu [SCBD] PASS  a= 97, b=  70, out= 97 exp= 97, ctl=0
UVM_INFO alu_driver.sv(28) @ 27: uvm_test_top.env_alu.agnt_alu.DRIVER [DRIVER] A =  49 , B =  41, ctl=0
UVM_INFO alu_scoreboard.sv(77) @ 30: uvm_test_top.env_alu.sb_alu [SCBD] PASS  a= 97, b=  70, out= 97 exp= 97, ctl=0
UVM_INFO alu_monitor.sv(32) @ 32: uvm_test_top.env_alu.agnt_alu.MONITOR_IN [MONITOR_IN] a= 49, b=  41, ctl=0
UVM_INFO alu_scoreboard.sv(60) @ 32: uvm_test_top.env_alu.sb_alu [SCOREBOARD] ctl = 0
UVM_INFO alu_monitor_2.sv(29) @ 32: uvm_test_top.env_alu.mon_alu_2 [MONITOR_OUT] z= 49
UVM_INFO alu_driver.sv(28) @ 32: uvm_test_top.env_alu.agnt_alu.DRIVER [DRIVER] A = 114 , B =  17, ctl=0
UVM_INFO alu_scoreboard.sv(77) @ 35: uvm_test_top.env_alu.sb_alu [SCBD] PASS  a= 49, b=  41, out= 49 exp= 49, ctl=0
UVM_INFO alu_driver.sv(28) @ 37: uvm_test_top.env_alu.agnt_alu.DRIVER [DRIVER] A = 112 , B =  86, ctl=0
UVM_INFO alu_scoreboard.sv(77) @ 40: uvm_test_top.env_alu.sb_alu [SCBD] PASS  a= 49, b=  41, out= 49 exp= 49, ctl=0
UVM_INFO alu_monitor.sv(32) @ 42: uvm_test_top.env_alu.agnt_alu.MONITOR_IN [MONITOR_IN] a=112, b=  86, ctl=0
UVM_INFO alu_scoreboard.sv(60) @ 42: uvm_test_top.env_alu.sb_alu [SCOREBOARD] ctl = 0
UVM_INFO alu_monitor_2.sv(29) @ 42: uvm_test_top.env_alu.mon_alu_2 [MONITOR_OUT] z=112
UVM_INFO alu_driver.sv(28) @ 42: uvm_test_top.env_alu.agnt_alu.DRIVER [DRIVER] A = 107 , B = 102, ctl=0
UVM_INFO alu_scoreboard.sv(77) @ 45: uvm_test_top.env_alu.sb_alu [SCBD] PASS  a=112, b=  86, out=112 exp=112, ctl=0
UVM_INFO alu_driver.sv(28) @ 47: uvm_test_top.env_alu.agnt_alu.DRIVER [DRIVER] A =  66 , B =   4, ctl=0
UVM_INFO alu_scoreboard.sv(77) @ 50: uvm_test_top.env_alu.sb_alu [SCBD] PASS  a=112, b=  86, out=112 exp=112, ctl=0
UVM_INFO alu_monitor.sv(32) @ 52: uvm_test_top.env_alu.agnt_alu.MONITOR_IN [MONITOR_IN] a= 66, b=   4, ctl=0
UVM_INFO alu_scoreboard.sv(60) @ 52: uvm_test_top.env_alu.sb_alu [SCOREBOARD] ctl = 0
UVM_INFO alu_monitor_2.sv(29) @ 52: uvm_test_top.env_alu.mon_alu_2 [MONITOR_OUT] z= 66
UVM_INFO alu_scoreboard.sv(77) @ 55: uvm_test_top.env_alu.sb_alu [SCBD] PASS  a= 66, b=   4, out= 66 exp= 66, ctl=0
UVM_INFO alu_scoreboard.sv(77) @ 60: uvm_test_top.env_alu.sb_alu [SCBD] PASS  a= 66, b=   4, out= 66 exp= 66, ctl=0
UVM_INFO alu_monitor.sv(32) @ 62: uvm_test_top.env_alu.agnt_alu.MONITOR_IN [MONITOR_IN] a= 66, b=   4, ctl=0
UVM_INFO alu_scoreboard.sv(60) @ 62: uvm_test_top.env_alu.sb_alu [SCOREBOARD] ctl = 0
UVM_INFO alu_monitor_2.sv(29) @ 62: uvm_test_top.env_alu.mon_alu_2 [MONITOR_OUT] z= 66
UVM_INFO alu_scoreboard.sv(77) @ 65: uvm_test_top.env_alu.sb_alu [SCBD] PASS  a= 66, b=   4, out= 66 exp= 66, ctl=0
UVM_INFO alu_scoreboard.sv(77) @ 70: uvm_test_top.env_alu.sb_alu [SCBD] PASS  a= 66, b=   4, out= 66 exp= 66, ctl=0
UVM_INFO alu_monitor.sv(32) @ 72: uvm_test_top.env_alu.agnt_alu.MONITOR_IN [MONITOR_IN] a= 66, b=   4, ctl=0
UVM_INFO alu_scoreboard.sv(60) @ 72: uvm_test_top.env_alu.sb_alu [SCOREBOARD] ctl = 0
UVM_INFO alu_monitor_2.sv(29) @ 72: uvm_test_top.env_alu.mon_alu_2 [MONITOR_OUT] z= 66
UVM_INFO alu_scoreboard.sv(77) @ 75: uvm_test_top.env_alu.sb_alu [SCBD] PASS  a= 66, b=   4, out= 66 exp= 66, ctl=0
UVM_INFO alu_scoreboard.sv(77) @ 80: uvm_test_top.env_alu.sb_alu [SCBD] PASS  a= 66, b=   4, out= 66 exp= 66, ctl=0
UVM_INFO alu_monitor.sv(32) @ 82: uvm_test_top.env_alu.agnt_alu.MONITOR_IN [MONITOR_IN] a= 66, b=   4, ctl=0
UVM_INFO alu_scoreboard.sv(60) @ 82: uvm_test_top.env_alu.sb_alu [SCOREBOARD] ctl = 0
UVM_INFO alu_monitor_2.sv(29) @ 82: uvm_test_top.env_alu.mon_alu_2 [MONITOR_OUT] z= 66
UVM_INFO alu_scoreboard.sv(77) @ 85: uvm_test_top.env_alu.sb_alu [SCBD] PASS  a= 66, b=   4, out= 66 exp= 66, ctl=0
UVM_INFO alu_scoreboard.sv(77) @ 90: uvm_test_top.env_alu.sb_alu [SCBD] PASS  a= 66, b=   4, out= 66 exp= 66, ctl=0
UVM_INFO alu_monitor.sv(32) @ 92: uvm_test_top.env_alu.agnt_alu.MONITOR_IN [MONITOR_IN] a= 66, b=   4, ctl=0
UVM_INFO alu_scoreboard.sv(60) @ 92: uvm_test_top.env_alu.sb_alu [SCOREBOARD] ctl = 0
UVM_INFO alu_monitor_2.sv(29) @ 92: uvm_test_top.env_alu.mon_alu_2 [MONITOR_OUT] z= 66
UVM_INFO alu_scoreboard.sv(77) @ 95: uvm_test_top.env_alu.sb_alu [SCBD] PASS  a= 66, b=   4, out= 66 exp= 66, ctl=0
UVM_INFO alu_scoreboard.sv(77) @ 100: uvm_test_top.env_alu.sb_alu [SCBD] PASS  a= 66, b=   4, out= 66 exp= 66, ctl=0
UVM_INFO alu_monitor.sv(32) @ 102: uvm_test_top.env_alu.agnt_alu.MONITOR_IN [MONITOR_IN] a= 66, b=   4, ctl=0
UVM_INFO alu_scoreboard.sv(60) @ 102: uvm_test_top.env_alu.sb_alu [SCOREBOARD] ctl = 0
UVM_INFO alu_monitor_2.sv(29) @ 102: uvm_test_top.env_alu.mon_alu_2 [MONITOR_OUT] z= 66
UVM_INFO alu_scoreboard.sv(77) @ 105: uvm_test_top.env_alu.sb_alu [SCBD] PASS  a= 66, b=   4, out= 66 exp= 66, ctl=0
UVM_INFO alu_scoreboard.sv(77) @ 110: uvm_test_top.env_alu.sb_alu [SCBD] PASS  a= 66, b=   4, out= 66 exp= 66, ctl=0
UVM_INFO alu_monitor.sv(32) @ 112: uvm_test_top.env_alu.agnt_alu.MONITOR_IN [MONITOR_IN] a= 66, b=   4, ctl=0
UVM_INFO alu_scoreboard.sv(60) @ 112: uvm_test_top.env_alu.sb_alu [SCOREBOARD] ctl = 0
UVM_INFO alu_monitor_2.sv(29) @ 112: uvm_test_top.env_alu.mon_alu_2 [MONITOR_OUT] z= 66
UVM_INFO alu_scoreboard.sv(77) @ 115: uvm_test_top.env_alu.sb_alu [SCBD] PASS  a= 66, b=   4, out= 66 exp= 66, ctl=0
UVM_INFO alu_scoreboard.sv(77) @ 120: uvm_test_top.env_alu.sb_alu [SCBD] PASS  a= 66, b=   4, out= 66 exp= 66, ctl=0
UVM_INFO alu_monitor.sv(32) @ 122: uvm_test_top.env_alu.agnt_alu.MONITOR_IN [MONITOR_IN] a= 66, b=   4, ctl=0
UVM_INFO alu_scoreboard.sv(60) @ 122: uvm_test_top.env_alu.sb_alu [SCOREBOARD] ctl = 0
UVM_INFO alu_monitor_2.sv(29) @ 122: uvm_test_top.env_alu.mon_alu_2 [MONITOR_OUT] z= 66
UVM_INFO alu_scoreboard.sv(77) @ 125: uvm_test_top.env_alu.sb_alu [SCBD] PASS  a= 66, b=   4, out= 66 exp= 66, ctl=0
UVM_INFO alu_scoreboard.sv(77) @ 130: uvm_test_top.env_alu.sb_alu [SCBD] PASS  a= 66, b=   4, out= 66 exp= 66, ctl=0
UVM_INFO alu_monitor.sv(32) @ 132: uvm_test_top.env_alu.agnt_alu.MONITOR_IN [MONITOR_IN] a= 66, b=   4, ctl=0
UVM_INFO alu_scoreboard.sv(60) @ 132: uvm_test_top.env_alu.sb_alu [SCOREBOARD] ctl = 0
UVM_INFO alu_monitor_2.sv(29) @ 132: uvm_test_top.env_alu.mon_alu_2 [MONITOR_OUT] z= 66
UVM_INFO alu_scoreboard.sv(77) @ 135: uvm_test_top.env_alu.sb_alu [SCBD] PASS  a= 66, b=   4, out= 66 exp= 66, ctl=0
UVM_INFO alu_scoreboard.sv(77) @ 140: uvm_test_top.env_alu.sb_alu [SCBD] PASS  a= 66, b=   4, out= 66 exp= 66, ctl=0
UVM_INFO alu_monitor.sv(32) @ 142: uvm_test_top.env_alu.agnt_alu.MONITOR_IN [MONITOR_IN] a= 66, b=   4, ctl=0
UVM_INFO alu_scoreboard.sv(60) @ 142: uvm_test_top.env_alu.sb_alu [SCOREBOARD] ctl = 0
UVM_INFO alu_monitor_2.sv(29) @ 142: uvm_test_top.env_alu.mon_alu_2 [MONITOR_OUT] z= 66
UVM_INFO alu_scoreboard.sv(77) @ 145: uvm_test_top.env_alu.sb_alu [SCBD] PASS  a= 66, b=   4, out= 66 exp= 66, ctl=0
UVM_INFO alu_scoreboard.sv(77) @ 150: uvm_test_top.env_alu.sb_alu [SCBD] PASS  a= 66, b=   4, out= 66 exp= 66, ctl=0
UVM_INFO alu_monitor.sv(32) @ 152: uvm_test_top.env_alu.agnt_alu.MONITOR_IN [MONITOR_IN] a= 66, b=   4, ctl=0
UVM_INFO alu_scoreboard.sv(60) @ 152: uvm_test_top.env_alu.sb_alu [SCOREBOARD] ctl = 0
UVM_INFO alu_monitor_2.sv(29) @ 152: uvm_test_top.env_alu.mon_alu_2 [MONITOR_OUT] z= 66
UVM_INFO /home/morris/uvm-1.2/src/base/uvm_report_server.svh(847) @ 152: reporter [UVM/REPORT/SERVER] 
--- UVM Report Summary ---

** Report counts by severity
UVM_INFO :   99
UVM_WARNING :    0
UVM_ERROR :    0
UVM_FATAL :    0
** Report counts by id
[DRIVER]    11
[MONITOR_IN]    17
[MONITOR_OUT]    17
[RNTST]     1
[SCBD]    30
[SCOREBOARD]    16
[SEQUENCE]     1
[SEQUENCER]     2
[UVM/RELNOTES]     1
[UVMTOP]     1
[alu_scoreboard]     1
[my_environment]     1

$finish called from file "/home/morris/uvm-1.2/src/base/uvm_root.svh", line 517.
$finish at simulation time                  152
           V C S   S i m u l a t i o n   R e p o r t 
Time: 152 ns
CPU Time:      0.260 seconds;       Data structure size:   0.2Mb
Fri Feb 28 00:21:31 2020
